<mxfile host="app.diagrams.net" modified="2024-06-03T11:26:44.677Z" agent="Mozilla/5.0 (Macintosh; Intel Mac OS X 10_15_7) AppleWebKit/537.36 (KHTML, like Gecko) Chrome/125.0.0.0 Safari/537.36" version="24.4.13" etag="y-g4ZuTTChvf2QeutHC9" type="gitlab">
  <diagram name="Page-1" id="Q24mwVr9GvL-YevSF_q6">
    <mxGraphModel>
      <root>
        <mxCell id="0" />
        <mxCell id="1" parent="0" />
      </root>
    </mxGraphModel>
  </diagram>
</mxfile>
